{
	"credit": "Made with Blockbench",
	"parent": "block/door_bottom",
	"textures": {
		"bottom": "block/iron_door_bottom",
		"particle": "block/iron_door_top"
	},
	"elements": [
		{
			"from": [0, 0, 0],
			"to": [3, 16, 16],
			"faces": {
				"north": {"uv": [3, 0, 0, 16], "texture": "#bottom"},
				"east": {"uv": [16, 0, 0, 16], "texture": "#bottom"},
				"south": {"uv": [0, 0, 3, 16], "texture": "#bottom"},
				"west": {"uv": [0, 0, 16, 16], "texture": "#bottom"},
				"up": {"uv": [10, 16, 13, 0], "texture": "#bottom"},
				"down": {"uv": [10, 0, 13, 16], "texture": "#bottom"}
			}
		}
	]
}