{
  "variants": {
    "facing=east,open=false": {
      "uvlock": true,
      "y": 90,
      "model": "minecraft:block/fence_gate/bamboo_fence_gate"
    },
    "facing=east,open=true": {
      "uvlock": true,
      "y": 90,
      "model": "minecraft:block/fence_gate/bamboo_fence_gate_open"
    },
    "facing=north,open=false": {
      "uvlock": true,
      "model": "minecraft:block/fence_gate/bamboo_fence_gate"
    },
    "facing=north,open=true": {
      "uvlock": true,
      "model": "minecraft:block/fence_gate/bamboo_fence_gate_open"
    },
    "facing=south,open=false": {
      "uvlock": true,
      "model": "minecraft:block/fence_gate/bamboo_fence_gate"
    },
    "facing=south,open=true": {
      "uvlock": true,
      "model": "minecraft:block/fence_gate/bamboo_fence_gate_open"
    },
    "facing=west,open=false": {
      "uvlock": true,
      "y": 90,
      "model": "minecraft:block/fence_gate/bamboo_fence_gate"
    },
    "facing=west,open=true": {
      "uvlock": true,
      "y": 90,
      "model": "minecraft:block/fence_gate/bamboo_fence_gate_open"
    }
  }
}