{
	"credit": "Designed by HanFox with Cubik Studio - https://cubik.studio",
	"parent": "block/black_candle_cake",
	"textures": {
		"candle": "block/candles_lit_01",
		"particle": "block/cake_top"
	}
}