{
  "__comment": "Designed by HanFox with Cubik Studio - https://cubik.studio",
  "parent": "block/cyan_candle_three_candles",
  "textures": {
    "particle": "block/candle",
    "all": "block/candles_lit_01"
  }
}
